%YAML 1.1
%TAG !u! tag:unity3d.com,2011:
--- !u!114 &11400000
MonoBehaviour:
  m_ObjectHideFlags: 0
  m_CorrespondingSourceObject: {fileID: 0}
  m_PrefabInstance: {fileID: 0}
  m_PrefabAsset: {fileID: 0}
  m_GameObject: {fileID: 0}
  m_Enabled: 1
  m_EditorHideFlags: 0
  m_Script: {fileID: 11500000, guid: f7b60b0efe7c8774f8ebab0a0f3ba4ec, type: 3}
  m_Name: Mouse Holding Card
  m_EditorClassIdentifier: 
  currentCard: {fileID: 11400000, guid: 83281f083cfff67468b78822b95210e7, type: 2}
  playerControlState: {fileID: 11400000, guid: c349212734e864445acea25d2e142985, type: 2}
  onPlayerControlState: {fileID: 11400000, guid: 6a45ae9607f29364a9d8c107ba67661b,
    type: 2}
