%YAML 1.1
%TAG !u! tag:unity3d.com,2011:
--- !u!114 &11400000
MonoBehaviour:
  m_ObjectHideFlags: 0
  m_CorrespondingSourceObject: {fileID: 0}
  m_PrefabInstance: {fileID: 0}
  m_PrefabAsset: {fileID: 0}
  m_GameObject: {fileID: 0}
  m_Enabled: 1
  m_EditorHideFlags: 0
  m_Script: {fileID: 11500000, guid: 0d8f5de4c594e874a9b1ab60e15830a0, type: 3}
  m_Name: B10
  m_EditorClassIdentifier: 
  type: 2
  value: B10
  artwork: {fileID: 21300000, guid: 8bab168cf50db1c4a9d3badd46abf81a, type: 3}
