%YAML 1.1
%TAG !u! tag:unity3d.com,2011:
--- !u!114 &11400000
MonoBehaviour:
  m_ObjectHideFlags: 0
  m_CorrespondingSourceObject: {fileID: 0}
  m_PrefabInstance: {fileID: 0}
  m_PrefabAsset: {fileID: 0}
  m_GameObject: {fileID: 0}
  m_Enabled: 1
  m_EditorHideFlags: 0
  m_Script: {fileID: 11500000, guid: 0d8f5de4c594e874a9b1ab60e15830a0, type: 3}
  m_Name: Y5
  m_EditorClassIdentifier: 
  type: 3
  value: Y5
  artwork: {fileID: 21300000, guid: 733659160559e184b9da78e04cab82e5, type: 3}
