points\Point.class
card\DoorCard.class
server\ServerManager$NonBlockingThread.class
rules\Rule.class
card\ColoredCard$1.class
server\Pair.class
cardPackage\CardPackage.class
server\GameServer.class
Main.class
server\GameServer$Timer.class
card\Color.class
server\GameState.class
card\Card.class
server\ServerManager.class
card\BlackCard.class
server\ServerManager$Timer.class
player\Player.class
card\ColoredCard.class
