%YAML 1.1
%TAG !u! tag:unity3d.com,2011:
--- !u!114 &11400000
MonoBehaviour:
  m_ObjectHideFlags: 0
  m_CorrespondingSourceObject: {fileID: 0}
  m_PrefabInstance: {fileID: 0}
  m_PrefabAsset: {fileID: 0}
  m_GameObject: {fileID: 0}
  m_Enabled: 1
  m_EditorHideFlags: 0
  m_Script: {fileID: 11500000, guid: 0d8f5de4c594e874a9b1ab60e15830a0, type: 3}
  m_Name: N13
  m_EditorClassIdentifier: 
  type: 4
  value: N13
  artwork: {fileID: 21300000, guid: 4d620ca2616768345965980a45b2c4ce, type: 3}
